{
    "URL_BASE_API": "https://localhost:8086",
    "URL_AUTH_API": "http://epscce-seg.test",
    "URL_API": "http://192.168.65.144:8085",
    "DATA_AUTH_CLIENTE": "1",
    "DATA_AUTH_GRANT_APP": "password",

    "TIEMPO_ACT_FECHA_SISTEMA": "300"
}